<?xml version="1.0" encoding="UTF-8" standalone="no"?>
<svg
   xmlns:dc="http://purl.org/dc/elements/1.1/"
   xmlns:cc="http://creativecommons.org/ns#"
   xmlns:rdf="http://www.w3.org/1999/02/22-rdf-syntax-ns#"
   xmlns:svg="http://www.w3.org/2000/svg"
   xmlns="http://www.w3.org/2000/svg"
   xmlns:sodipodi="http://sodipodi.sourceforge.net/DTD/sodipodi-0.dtd"
   xmlns:inkscape="http://www.inkscape.org/namespaces/inkscape"
   width="134.90144mm"
   height="34.378407mm"
   viewBox="0 0 134.90144 34.378407"
   version="1.1"
   id="svg8"
   inkscape:version="1.0.2 (e86c870879, 2021-01-15)"
   sodipodi:docname="logo.svg">
  <defs
     id="defs2" />
  <sodipodi:namedview
     id="base"
     pagecolor="#ffffff"
     bordercolor="#666666"
     borderopacity="1.0"
     inkscape:pageopacity="0.0"
     inkscape:pageshadow="2"
     inkscape:zoom="0.7"
     inkscape:cx="210.87406"
     inkscape:cy="312.7575"
     inkscape:document-units="mm"
     inkscape:current-layer="layer1"
     inkscape:document-rotation="0"
     showgrid="false"
     fit-margin-top="0"
     fit-margin-left="0"
     fit-margin-right="0"
     fit-margin-bottom="0"
     inkscape:window-width="1920"
     inkscape:window-height="1029"
     inkscape:window-x="0"
     inkscape:window-y="0"
     inkscape:window-maximized="1" />
  <metadata
     id="metadata5">
    <rdf:RDF>
      <cc:Work
         rdf:about="">
        <dc:format>image/svg+xml</dc:format>
        <dc:type
           rdf:resource="http://purl.org/dc/dcmitype/StillImage" />
        <dc:title></dc:title>
      </cc:Work>
    </rdf:RDF>
  </metadata>
  <g
     inkscape:label="Layer 1"
     inkscape:groupmode="layer"
     id="layer1"
     transform="translate(-23.254803,-7.8151134)">
    <g
       id="g861"
       transform="matrix(0.07541109,0,0,0.07541109,20.260983,7.8151134)">
      <path
         d="m 321.218,257.555 c 15.516,-20.46 23.717,-44.881 23.717,-70.624 0,-31.563 -12.379,-61.151 -34.857,-83.314 -22.474,-22.158 -52.261,-34.124 -83.828,-33.668 -30.591,0.433 -59.412,12.708 -81.154,34.564 -21.741,21.855 -33.867,50.741 -34.145,81.335 -0.238,26.228 8.011,51.088 23.855,71.894 25.721,33.776 39.887,75.149 39.887,116.498 v 45.244 c 0,20.069 16.327,36.396 36.396,36.396 h 33.854 c 20.069,0 36.396,-16.328 36.396,-36.396 v -45.241 c 10e-4,-41.806 13.691,-82.157 39.879,-116.688 z m -174.478,-8.9 c -13.808,-18.132 -20.997,-39.803 -20.79,-62.67 0.499,-54.935 45.588,-100.26 100.512,-101.037 27.553,-0.37 53.493,10.035 73.084,29.352 19.597,19.321 30.389,45.116 30.389,72.632 0,22.442 -7.147,43.729 -20.669,61.56 -27.593,36.385 -42.45,78.833 -43.058,122.93 H 189.672 C 189.045,327.753 173.855,284.261 146.74,248.655 Z m 42.953,165.746 v -6.072 l 76.647,8.781 v 2.374 c 0,1.25 -0.13,2.468 -0.336,3.659 z m 0,-21.17 v -6.809 h 76.647 v 15.59 z m 21.396,47.65 c -8.057,0 -15.082,-4.48 -18.731,-11.077 l 64.567,7.397 c -3.421,2.321 -7.545,3.679 -11.981,3.679 h -33.855 z"
         id="path833" />
      <path
         d="m 153.776,198.213 c -0.585,-3.925 -0.864,-7.957 -0.827,-11.983 0.038,-4.142 -3.289,-7.53 -7.431,-7.568 -4.114,-0.036 -7.53,3.289 -7.568,7.431 -0.044,4.81 0.289,9.632 0.99,14.333 0.555,3.722 3.755,6.395 7.409,6.395 0.368,0 0.741,-0.027 1.116,-0.083 4.096,-0.612 6.922,-4.428 6.311,-8.525 z"
         id="path835" />
      <path
         d="m 197.913,312.135 c 0.776,0 1.566,-0.122 2.344,-0.377 3.935,-1.294 6.076,-5.533 4.782,-9.467 -8.312,-25.277 -20.7,-48.827 -36.82,-69.994 -2.664,-3.499 -5.025,-7.226 -7.016,-11.079 -1.902,-3.68 -6.427,-5.12 -10.107,-3.218 -3.679,1.902 -5.12,6.427 -3.218,10.107 2.39,4.622 5.218,9.089 8.408,13.278 15.106,19.836 26.715,41.904 34.504,65.591 1.038,3.157 3.971,5.159 7.123,5.159 z"
         id="path837" />
      <path
         d="m 306.746,212.613 c -3.804,-1.639 -8.217,0.117 -9.855,3.921 -2.376,5.518 -5.451,10.781 -9.139,15.643 -2.503,3.3 -1.856,8.005 1.444,10.508 1.355,1.028 2.947,1.524 4.526,1.524 2.267,0 4.507,-1.023 5.982,-2.969 4.419,-5.827 8.107,-12.143 10.963,-18.772 1.639,-3.804 -0.116,-8.217 -3.921,-9.855 z"
         id="path839" />
      <path
         d="m 227.941,111.938 c 41.352,0 74.994,33.643 74.994,74.995 0,2.351 -0.108,4.72 -0.321,7.041 -0.378,4.125 2.658,7.775 6.783,8.154 0.233,0.021 0.464,0.032 0.694,0.032 3.833,0 7.103,-2.923 7.46,-6.815 0.254,-2.775 0.384,-5.605 0.384,-8.412 0,-49.623 -40.371,-89.995 -89.994,-89.995 -4.142,0 -7.5,3.358 -7.5,7.5 0,4.142 3.358,7.5 7.5,7.5 z"
         id="path841" />
      <path
         d="m 227.941,57 c 4.142,0 7.5,-3.358 7.5,-7.5 v -42 c 0,-4.142 -3.358,-7.5 -7.5,-7.5 -4.142,0 -7.5,3.358 -7.5,7.5 v 42 c 0,4.142 3.358,7.5 7.5,7.5 z"
         id="path843" />
      <path
         d="m 152.065,71.82 c 1.39,2.407 3.91,3.752 6.502,3.752 1.272,0 2.562,-0.324 3.743,-1.006 3.587,-2.071 4.817,-6.658 2.746,-10.245 l -20.99,-36.36 c -2.072,-3.588 -6.658,-4.817 -10.245,-2.746 -3.587,2.071 -4.817,6.658 -2.746,10.245 z"
         id="path845" />
      <path
         d="m 388.22,272.115 -36.36,-20.99 c -3.588,-2.072 -8.175,-0.842 -10.245,2.746 -2.071,3.587 -0.842,8.174 2.746,10.245 l 36.36,20.99 c 1.181,0.682 2.47,1.006 3.743,1.006 2.592,0 5.113,-1.346 6.502,-3.752 2.071,-3.587 0.841,-8.174 -2.746,-10.245 z"
         id="path847" />
      <path
         d="m 67.661,104.366 36.36,20.99 c 1.181,0.682 2.47,1.006 3.743,1.006 2.592,0 5.113,-1.346 6.502,-3.752 2.071,-3.587 0.842,-8.174 -2.746,-10.245 L 75.16,91.375 c -3.587,-2.072 -8.174,-0.842 -10.245,2.746 -2.071,3.587 -0.842,8.173 2.746,10.245 z"
         id="path849" />
      <path
         d="m 408.68,180.74 h -42 c -4.142,0 -7.5,3.358 -7.5,7.5 0,4.142 3.358,7.5 7.5,7.5 h 42 c 4.142,0 7.5,-3.358 7.5,-7.5 0,-4.142 -3.357,-7.5 -7.5,-7.5 z"
         id="path851" />
      <path
         d="m 96.7,188.24 c 0,-4.142 -3.358,-7.5 -7.5,-7.5 h -42 c -4.142,0 -7.5,3.358 -7.5,7.5 0,4.142 3.358,7.5 7.5,7.5 h 42 c 4.143,0 7.5,-3.358 7.5,-7.5 z"
         id="path853" />
      <path
         d="m 348.117,126.362 c 1.272,0 2.562,-0.324 3.743,-1.006 l 36.36,-20.99 c 3.587,-2.071 4.817,-6.658 2.746,-10.245 -2.071,-3.587 -6.659,-4.817 -10.245,-2.746 l -36.36,20.99 c -3.587,2.071 -4.817,6.658 -2.746,10.245 1.389,2.406 3.911,3.752 6.502,3.752 z"
         id="path855" />
      <path
         d="m 104.021,251.125 -36.36,20.99 c -3.587,2.071 -4.817,6.658 -2.746,10.245 1.389,2.406 3.91,3.752 6.502,3.752 1.272,0 2.562,-0.324 3.743,-1.006 l 36.36,-20.99 c 3.587,-2.071 4.817,-6.658 2.746,-10.245 -2.07,-3.588 -6.66,-4.817 -10.245,-2.746 z"
         id="path857" />
      <path
         d="m 293.571,74.566 c 1.181,0.682 2.47,1.006 3.743,1.006 2.592,0 5.113,-1.346 6.502,-3.752 l 20.99,-36.36 c 2.071,-3.587 0.841,-8.174 -2.746,-10.245 -3.586,-2.071 -8.174,-0.842 -10.245,2.746 l -20.99,36.36 c -2.071,3.587 -0.841,8.174 2.746,10.245 z"
         id="path859" />
    </g>
    <text
       xml:space="preserve"
       style="font-size:25.7699px;line-height:1.25;font-family:sans-serif;-inkscape-font-specification:sans-serif;letter-spacing:0px;word-spacing:0px;stroke-width:1.93274"
       x="58.460678"
       y="31.950392"
       id="text888"><tspan
         sodipodi:role="line"
         id="tspan886"
         x="58.460678"
         y="31.950392"
         style="font-style:normal;font-variant:normal;font-weight:200;font-stretch:normal;font-family:'DejaVu Sans';-inkscape-font-specification:'DejaVu Sans Ultra-Light';stroke-width:1.93274">lcontrol</tspan></text>
    <text
       xml:space="preserve"
       style="font-size:5.13px;line-height:1.25;font-family:sans-serif;-inkscape-font-specification:sans-serif;letter-spacing:0px;word-spacing:0px;stroke-width:0.38475"
       x="60.500881"
       y="40.095032"
       id="text888-7"><tspan
         sodipodi:role="line"
         id="tspan886-7"
         x="60.500881"
         y="40.095032"
         style="font-style:normal;font-variant:normal;font-weight:200;font-stretch:normal;font-family:'DejaVu Sans';-inkscape-font-specification:'DejaVu Sans Ultra-Light';stroke-width:0.38475">úžasný ovládač podsvietenia modelov</tspan></text>
  </g>
</svg>
